{
	"info": {
		"_postman_id": "cdde6c9b-f101-4492-ad2a-841394df0c2e",
		"name": "Site Genie",
		"schema": "https://schema.getpostman.com/json/collection/v2.1.0/collection.json"
	},
	"item": [
		{
			"name": "Get Site Data",
			"request": {
				"auth": {
					"type": "bearer",
					"bearer": [
						{
							"key": "token",
							"value": "{{TOKEN}}",
							"type": "string"
						}
					]
				},
				"method": "GET",
				"header": [],
				"url": {
					"raw": "{{SITE_GENIE_HOST}}/v1/site_genie/site/load?sub_site_loc_code=KURODA_AUTOBODY_SITE",
					"host": [
						"{{SITE_GENIE_HOST}}"
					],
					"path": [
						"v1",
						"site_genie",
						"site",
						"load"
					],
					"query": [
						{
							"key": "site_system_id",
							"value": "S-0006773",
							"disabled": true
						},
						{
							"key": "site_loc_code",
							"value": "KURODA_AUTdddOBODY_20150722211902_c",
							"disabled": true
						},
						{
							"key": "sub_site_loc_code",
							"value": "KURODA_AUTOBODY_SITE"
						}
					]
				}
			},
			"response": []
		}
	]
}