{
	"id": "c0b30956-b014-4364-841f-894f83b1badb",
	"name": "Prod",
	"values": [
		{
			"key": "WEATHER_HOST",
			"value": "http://prod-weather.stem.com",
			"description": "",
			"enabled": true
		},
		{
			"key": "FORECAST_HOST",
			"value": "http://prod-stem-forecast.stem.com",
			"description": "",
			"enabled": true
		},
		{
			"key": "STEM_MS_APP_HOST",
			"value": "http://prod-stem-ms-app.stem.com",
			"description": "",
			"enabled": true
		},
		{
			"key": "TOKEN",
			"value": "",
			"type": "text",
			"description": "",
			"enabled": true
		}
	],
	"_postman_variable_scope": "environment",
	"_postman_exported_at": "2019-02-07T22:47:30.845Z",
	"_postman_exported_using": "Postman/6.7.3"
}